-e 2021年 03月 05日 星期五 15:10:01 CST
Mac
 link/ether e0:d5:5e:e6:04:f3 brd ff:ff:ff:ff:ff:ff
ipv4
 inet 192.168.1.199/24 brd 192.168.1.255 scope global noprefixroute enp4s0
ipv6
 inet6 fe80::8668:45e2:4e62:7d38/64 scope link noprefixroute
